{"content_id": 32, "type": "cte", "created_time": "2016-10-06T00:05:31Z", "user": 37}
{"content_id": 32, "type": "cte", "created_time": "2016-10-06T00:06:10Z", "user": 37}
{"content_id": 32, "type": "cte", "created_time": "2016-10-06T00:06:25Z", "user": 37}
