{"String": "Google News", "Time": "2017-04-08T09:01:00+00:00"}
{"String": "javascript - Making a text field uneditable and not just readonly - Stack Overflow", "Time": "2017-04-08T09:01:49+00:00"}
{"String": "javascript - Making a text field uneditable and not just readonly - Stack Overflow", "Time": "2017-04-08T09:02:01+00:00"}
{"String": "magnetic", "Time": "2017-04-08T09:08:20+00:00"}
{"String": "javascript - Making a text field uneditable and not ", "Time": "2017-04-08T09:08:45+00:00"}
{"String": "javascript - Making a text field uneditable and not just readonly - Stack Overflow", "Time": "2017-04-08T09:08:56+00:00"}
{"String": "?RK Nagar byelection: Income tax officials raid Tamil Nadu health minister Vijayabaskar\u2019s premises?", "Time": "2017-04-08T09:09:09+00:00"}
